…
Create a report and visualize the scores:

``` r
tva_data_report <- tva_report(tva_data)
tva_data_report
#> # A tibble: 400 × 6
#>    condition exposure score n_items n_distractors n_targets
#>        <int>    <dbl> <int>   <int>         <int>     <int>
#>  1        11       50     0       6             3         3
#>  2        29      150     2       6             3         3
#>  3        54      500     6       6             0         6
#>  4        16       80     1       4             0         4
#>  5        51      500     2       4             2         2
#>  6        27      150     2       4             2         2
#>  7         2       10     0       2             0         2
#>  8        43      400     1       2             1         1
#>  9        34      200     3       4             0         4
#> 10        52      500     3       4             0         4
#> # ℹ 390 more rows
…
